{
    "menu": [
        {
            "title": "Каталог",
            "url": "/catalog-main.html",
            "submenu": [
                {
                    "title": "Запчасти для импортной спецтехники",
                    "url": "/catalog-zapchasti-spectehnika.html"
                },
                {
                    "title": "Запчасти для грузовых автомобилей",
                    "url": ""
                },
                {
                    "title": "Грузовые и специальные автошины",
                    "url": "/catalog-tires.html"
                },
                {
                    "title": "Спецтехника",
                    "url": "/spectehnika.html"
                }
            ]
        },
        {
            "title": "О компании",
            "url": "/about.html"
        },
        {
            "title": "Галерея",
            "url": "/gallery.html"
        },
        {
            "title": "Оплата и доставка",
            "url": "/404.html",
            "submenu": [
                {
                    "title": "Оплата",
                    "url": ""
                },
                {
                    "title": "Доставка",
                    "url": ""
                }
            ]
        },
        {
            "title": "Контакты",
            "url": "/contacts.html"
        }
    ],
    "side_catalog": [
        {
            "title": "ПРОИЗВОДИТЕЛИ",
            "item": [
                {
                    "name": "atlas copco",
                    "url": "/catalog-category.html",
                    "subcatalog": [
                        {
                            "name": "Бульдозеры",
                            "url": "/catalog-category.html"
                        },
                        {
                            "name": "Экскаваторы гусеничные",
                            "url": "/catalog-category.html"
                        }
                    ]
                },
                {
                    "name": "caterpilar",
                    "url": "/catalog-category.html",
                    "subcatalog": [
                        {
                            "name": "Бульдозеры",
                            "url": "/catalog-category.html"
                        },
                        {
                            "name": "Экскаваторы гусеничные",
                            "url": "/catalog-category.html"
                        }
                    ]
                },
                {
                    "name": "daewoo",
                    "url": "/catalog-category.html",
                    "subcatalog": [
                        {
                            "name": "Бульдозеры",
                            "url": "/catalog-category.html"
                        },
                        {
                            "name": "Экскаваторы гусеничные",
                            "url": "/catalog-category.html"
                        }
                    ]
                },
                {
                    "name": "dosan",
                    "url": "/catalog-category.html",
                    "subcatalog": [
                        {
                            "name": "Бульдозеры",
                            "url": "/catalog-category.html"
                        },
                        {
                            "name": "Экскаваторы гусеничные",
                            "url": "/catalog-category.html"
                        }
                    ]
                },
                {
                    "name": "hytachi",
                    "url": "/catalog-category.html",
                    "subcatalog": [
                        {
                            "name": "Бульдозеры",
                            "url": "/catalog-category.html"
                        },
                        {
                            "name": "Экскаваторы гусеничные",
                            "url": "/catalog-category.html"
                        }
                    ]
                },
                {
                    "name": "hyndai",
                    "url": "/catalog-category.html",
                    "subcatalog": [
                        {
                            "name": "Бульдозеры",
                            "url": "/catalog-category.html"
                        },
                        {
                            "name": "Экскаваторы гусеничные",
                            "url": "/catalog-category.html"
                        }
                    ]
                },
                {
                    "name": "jcb",
                    "url": "/catalog-category.html",
                    "subcatalog": [
                        {
                            "name": "Бульдозеры",
                            "url": "/catalog-category.html"
                        },
                        {
                            "name": "Экскаваторы гусеничные",
                            "url": "/catalog-category.html"
                        }
                    ]
                }
            ]
        },
        {
            "title": "виды техники",
            "item": [
                {
                    "name": "бульдозер",
                    "url": "/catalog-category.html"
                },
                {
                    "name": "грейдер",
                    "url": "/catalog-category.html"
                },
                {
                    "name": "экскаватор гусеничный",
                    "url": "/catalog-category.html"
                },
                {
                    "name": "экскаватор колесный",
                    "url": "/catalog-category.html"
                },
                {
                    "name": "фронтальный погрузчик",
                    "url": "/catalog-category.html"
                }
            ]
        },
        {
            "title": "Виды запчастей",
            "item": [
                {
                    "name": "буровой инструмент",
                    "url": "/catalog-category.html",
                    "subcatalog": [
                        {
                            "name": "Бульдозеры",
                            "url": "/catalog-category.html"
                        },
                        {
                            "name": "Экскаваторы гусеничные",
                            "url": "/catalog-category.html"
                        }
                    ]
                },
                {
                    "name": "гидравлические компоненты",
                    "url": "/catalog-category.html",
                    "subcatalog": [
                        {
                            "name": "Бульдозеры",
                            "url": "/catalog-category.html"
                        },
                        {
                            "name": "Экскаваторы гусеничные",
                            "url": "/catalog-category.html"
                        }
                    ]
                },
                {
                    "name": "детали двигателя",
                    "url": "/catalog-category.html",
                    "subcatalog": [
                        {
                            "name": "Бульдозеры",
                            "url": "/catalog-category.html"
                        },
                        {
                            "name": "Экскаваторы гусеничные",
                            "url": "/catalog-category.html"
                        }
                    ]
                },
                {
                    "name": "насосы",
                    "url": "/catalog-category.html",
                    "subcatalog": [
                        {
                            "name": "Бульдозеры",
                            "url": "/catalog-category.html"
                        },
                        {
                            "name": "Экскаваторы гусеничные",
                            "url": "/catalog-category.html"
                        }
                    ]
                },
                {
                    "name": "режущие элементы",
                    "url": "/catalog-category.html",
                    "subcatalog": [
                        {
                            "name": "Бульдозеры",
                            "url": "/catalog-category.html"
                        },
                        {
                            "name": "Экскаваторы гусеничные",
                            "url": "/catalog-category.html"
                        }
                    ]
                },
                {
                    "name": "стрелы и рукояти",
                    "url": "/catalog-category.html",
                    "subcatalog": [
                        {
                            "name": "Бульдозеры",
                            "url": "/catalog-category.html"
                        },
                        {
                            "name": "Экскаваторы гусеничные",
                            "url": "/catalog-category.html"
                        }
                    ]
                },
                {
                    "name": "трансмиссия",
                    "url": "/catalog-category.html",
                    "subcatalog": [
                        {
                            "name": "Бульдозеры",
                            "url": "/catalog-category.html"
                        },
                        {
                            "name": "Экскаваторы гусеничные",
                            "url": "/catalog-category.html"
                        }
                    ]
                },
                {
                    "name": "фильтры",
                    "url": "/catalog-category.html",
                    "subcatalog": [
                        {
                            "name": "Бульдозеры",
                            "url": "/catalog-category.html"
                        },
                        {
                            "name": "Экскаваторы гусеничные",
                            "url": "/catalog-category.html"
                        }
                    ]
                },
                {
                    "name": "ходовая часть",
                    "url": "/catalog-category.html",
                    "subcatalog": [
                        {
                            "name": "Бульдозеры",
                            "url": "/catalog-category.html"
                        },
                        {
                            "name": "Экскаваторы гусеничные",
                            "url": "/catalog-category.html"
                        }
                    ]
                }
            ]
        }
    ],
    "catalog_product_types": [
        {
            "name": "Бульдозеры",
            "img": "media/1.png",
            "url": ""
        },
        {
            "name": "Экскаваторы колесные",
            "img": "media/7.png",
            "url": ""
        },
        {
            "name": "Экскаваторы гусеничные",
            "img": "media/3.png",
            "url": ""
        },
        {
            "name": "Грейдеры",
            "img": "media/5.png",
            "url": ""
        },
        {
            "name": "Тракторы",
            "img": "media/4.png",
            "url": ""
        }
    ]
}